warning: commands will be executed using /bin/sh
job 3813 at Wed Jul 12 12:44:00 2017
scfcode = nwchem
Directory test exists; now deleted
Setting up files in directory test
See test/CO2-isa.clt.clout for output of CLUSTER
This is a properties calculation with SCF program nwchem
batch < /home/ajs1/CamCASP/examples/properties/CO2-isa/test/CO2.sh
